hdl_prj/vivado_ip_prj/.Xil/Vivado-2251-jason-OptiPlex-9020/hw_ila_data_1/zip_work/waveform.vcd
$date
        2019-Apr-05 14:39:55
$end
$version
        Vivado v2017.4 (64-bit)
$end
$timescale
        1ps
$end
$scope module dut $end
$var reg 32 " i_system_wrapper/system_i/ZynqBF_2t_ip_0/U0/u_ZynqBF_2t_ip_dut_inst/u_ZynqBF_2t_ip_src_ZynqBF_2tx_fpga/u_channel_estimator/u_correlators/ch1_corr_probe [31:0] $end
$var reg 32 B i_system_wrapper/system_i/ZynqBF_2t_ip_0/U0/u_ZynqBF_2t_ip_dut_inst/u_ZynqBF_2t_ip_src_ZynqBF_2tx_fpga/u_channel_estimator/u_correlators/ch2_corr_probe [31:0] $end
$var reg 32 b i_system_wrapper/system_i/ZynqBF_2t_ip_0/U0/u_ZynqBF_2t_ip_dut_inst/u_ZynqBF_2t_ip_src_ZynqBF_2tx_fpga/u_channel_estimator/u_correlators/ch3_corr_probe [31:0] $end
$var reg 32 $" i_system_wrapper/system_i/ZynqBF_2t_ip_0/U0/u_ZynqBF_2t_ip_dut_inst/u_ZynqBF_2t_ip_src_ZynqBF_2tx_fpga/u_channel_estimator/u_correlators/ch4_corr_probe [31:0] $end
$var reg 32 D" i_system_wrapper/system_i/ZynqBF_2t_ip_0/U0/u_ZynqBF_2t_ip_dut_inst/u_ZynqBF_2t_ip_src_ZynqBF_2tx_fpga/u_channel_estimator/u_correlators/ch5_corr_probe [31:0] $end
$var reg 1 d" _TRIGGER $end
$var reg 1 e" _WINDOW $end
$var reg 1 f" _GAP $end
$upscope $end
$enddefinitions $end
#0
$dumpvars
b10110000110101 "
b10000000101010111 B
b11111000000011100 b
b11101000000010 $"
b1010101010101 D"
0d"
1e"
0f"
$end
#14
b1100110101011 "
b1111100000000001 B
b11011000111011111 b
b11111011111111 $"
b11001001001100 D"
#200
b10010101 "
b1100100101111101 B
b10110110100101001 b
b11010100111111 $"
b101101111110001 D"
#386
b1110101001100 "
b111111000111100 B
b10010011100010010 b
b10000100001100 $"
b1000111001100100 D"
#571
b11100011111011011 "
b101100111001101 B
b111111100000111 b
b1000110100110101 $"
b10110110011101001 D"
#757
b11010000010010100 "
b10001110100100 B
b100010011011011 b
b110111111010001 $"
b11011111011101001 D"
#943
b10100110101111010 "
b10010010110010 B
b111111001110 b
b101001011000001 $"
b11110001001001110 D"
#1129
b1110001110110011 "
b111101010001101 B
b110101010010 b
b100010010101101 $"
b11110000011111101 D"
#1315
b110110111001101 "
b1100100001000000 B
b1000001110111 b
b100100011000011 $"
b11011101001010000 D"
#1501
b100111011001 "
b1111101111100110 B
b10100001111 b
b101111101110101 $"
b10111000110100011 D"
#1687
b111100101101010 "
b10000101001100001 B
b10111110001010 b
b1000011000100100 $"
b10000110110110101 D"
#1873
b1101011011100000 "
b1111000001010101 B
b110101001000100 b
b1011011111101001 $"
b1001100100101111 D"
#2058
b10001101000100100 "
b1011000111011101 B
b1010111010001000 b
b1110111010111010 $"
b10000110111101 D"
#2244
b10011111011111100 "
b101100111111011 B
b1111001110001010 b
b10010001101100110 $"
b100101010011110 D"
#2430
b10100010000000011 "
b11100000011 B
b10011000100010110 b
b10100110111110111 $"
b1001111111001000 D"
#2616
b10010100110110010 "
b101111100111110 B
b10110000100010001 b
b10110011101111011 $"
b1101010001010110 D"
#2802
b1111001100100001 "
b1001111100100111 B
b10111111010000001 b
b10110101100101000 $"
b1110001001011111 D"
#2988
b1010011010111110 "
b1011101100001110 B
b11000010100010101 b
b10101011001011010 $"
b1100100011101001 D"
#3174
b100110001001010 "
b1010110101100001 B
b10111001100110011 b
b10010100101101011 $"
b1000101111001100 D"
#3360
b1011000101001 "
b111100100100100 B
b10100101111000000 b
b1110100001001010 $"
b11001010110010 D"
#3545
b111101010111111 "
b10011110111011 B
b10001001110110101 b
b1001100100000111 $"
b11011011011001 D"
#3731
b1101100110010000 "
b11100111011100 B
b1100111110001100 b
b100001010111100 $"
b1010001001100010 D"
#3917
b10010110000011011 "
b1001101011001001 B
b1000010101100111 b
b1001000011001 $"
b10000000110100001 D"
#4103
b10110111100101100 "
b1110100100100000 B
b11110101000110 b
b101110000101111 $"
b10100100001000111 D"
#4289
b11010000001101110 "
b10001011011000111 B
b1000110100 b
b1001001100111101 $"
b10110110100001001 D"
#4475
b11011111001100001 "
b10001101011110100 B
b11001111101010 b
b1011000100100111 $"
b10110101011100100 D"
#4661
b11100100011001010 "
b1111001101010000 B
b101010000000101 b
b1011001010000011 $"
b10100000101101010 D"
#4846
b11100000000010011 "
b1010010011101101 B
b110000101001010 b
b1001011100001100 $"
b1111010011010110 D"
#5032
b11010011001101110 "
b11101001011101 B
b101110000101011 b
b110000101011111 $"
b1000111001001010 D"
#5218
b10111111100001010 "
b11110111001001 B
b100011001111000 b
b1011001010010 $"
b1101011010010 D"
#5404
b10100101110110111 "
b1011000110111011 B
b10010010011100 b
b100001100010001 $"
b101011101000110 D"
#5590
b10000111000100010 "
b10000111111011011 B
b10000011010 b
b1010000110011011 $"
b1011101011100100 D"
#5776
b110000111011000 "
b10011010 B
b1110010101110010 b
b10000100101110100 $"
b100011010011010000 D"
#5962
b11000100000010 "
b1001101100011110 B
b10000000001101001 b
b10001111010110011 $"
b100000001111101110 D"
#6148
b1011010110101110 "
b10101010110110011 B
b10001000000111100 b
b10010001100110111 $"
b11010111010100010 D"
#6333
b10001101010111100 "
b100000110100000110 B
b10001010100011011 b
b10001100000011101 $"
b10011101110001001 D"
#6519
b10101000011110011 "
b101001100011011111 B
b10001000010001010 b
b10000000000010101 $"
b1011001111000011 D"
#6705
b10100110010111111 "
b101100111011110111 B
b10000010100110100 b
b1101111101110001 $"
b10001100000110 D"
#6891
b10000011101001110 "
b101000100011010101 B
b1111011010001000 b
b1011101110001101 $"
b110100110011110 D"
#7077
b1000000000001111 "
b11010101100010110 B
b1110100001101110 b
b1001100110000110 $"
b1110011000001110 D"
#7263
b100001100101110 "
b10100111111111 B
b1101111001100000 b
b111110110100111 $"
b10100011111011000 D"
#7449
b10011011100001100 "
b11111010000100111 B
b1101101010111010 b
b110101100001000 $"
b11000011010100111 D"
#7635
b100100101100100010 "
b1001001010111110101 B
b1101111010100011 b
b110001101100010 $"
b11001110101101001 D"
#7820
b110110101101110110 "
b1111000111110110001 B
b1110100101101110 b
b110011001101011 $"
b11000101100100101 D"
#8006
b1001000001001001011 "
b10101010011011100011 B
b1111100011111101 b
b111000101011001 $"
b10101001100101000 D"
#8192
b1010111100110001111 "
b11011001100101010110 B
b10000101011110010 b
b1000000100000111 $"
b1111101110001111 D"
1d"
#8378
b1100011110100100010 "
b100000010010011110000 B
b10001110001000101 b
b1001001010100011 $"
b1000110011010100 D"
#8564
b1101011110110001101 "
b100100000110101101111 B
b10010100011000000 b
b1010000111101110 $"
b1001010100001 D"
#8750
b1101111000101010001 "
b100110010001111100001 B
b10010101111111011 b
b1010101100101001 $"
b110011010011100 D"
#8936
b1101101010111100011 "
b100110100110111110101 B
b10010000110110010 b
b1010110110000111 $"
b1101010010111010 D"
#9122
b1100111000001000101 "
b100101000011111010000 B
b10000010111100000 b
b1010100100101100 $"
b10010111001100111 D"
#9307
b1011100101110101111 "
b100001110001111000110 B
b1101011001110101 b
b1001111010100111 $"
b10110101100110011 D"
#9493
b1001111011111110010 "
b11101000100101110011 B
b1001010000101110 b
b1001000011001100 $"
b11000011010001001 D"
#9679
b1000000100010111000 "
b10111011000010111100 B
b100000100111100 b
b1000001110011111 $"
b11000000000000100 D"
#9865
b110001001100111011 "
b10001001101011000011 B
b1111100010010 b
b111101011000001 $"
b10101101000110111 D"
#10051
b100010101101100100 "
b1011000101010111111 B
b1000011101110011 b
b111100101100101 $"
b10001101010010010 D"
#10237
b10110001011100101 "
b101011111000111010 B
b1111000101111001 b
b1000000110010101 $"
b1100100101000000 D"
#10423
b1100011111000101 "
b110011010010001 B
b10101011010100001 b
b1001001101101001 $"
b111000010000110 D"
#10608
b110000110111001 "
b10101101110000101 B
b11010111111101110 b
b1010110101010001 $"
b1101100100101 D"
#10794
b11001000000011 "
b100111101010110111 B
b11111011010010000 b
b1100110001100000 $"
b10110100100101 D"
#10980
b11010011100010 "
b101111110010010011 B
b100010010110100110 b
b1110110010001111 $"
b101111110010110 D"
#11166
b110000110011011 "
b101111011011000010 B
b100011101000111010 b
b10000100100000010 $"
b111010101100100 D"
#11352
b1010101100110010 "
b101000101101011011 B
b100011001010110111 b
b10001110011011001 $"
b110101101100101 D"
#11538
b10000001100011011 "
b11110001011100111 B
b100001000000011010 b
b10010010010101000 $"
b100000111010110 D"
#11724
b10101101011011111 "
b10010010111101111 B
b11101011000111110 b
b10001111011101011 $"
b1110110001 D"
#11910
b11010010011001011 "
b111100001001011 B
b11000101010111110 b
b10000101110101100 $"
b101110111100001 D"
#12095
b11101010110011001 "
b101011110111 B
b10011010001111011 b
b1110110011101111 $"
b1100001011101001 D"
#12281
b11110010111001110 "
b101010010011011 B
b1101101101001101 b
b1100011011001010 $"
b10010011110011101 D"
#12467
b1011000100011010 "
b1010100000001011 B
b100001011111000001 b
b10000111110110110 $"
b1111100110011010 D"
#12653
b1010101011001110 "
b1001101000010110 B
b100010101111011010 b
b1011111100101110 $"
b10001010110110110 D"
#12839
b1100000100010110 "
b111001101010101 B
b100000011111010101 b
b111010101111101 $"
b10100011110101111 D"
#13025
b1101010111100000 "
b100010011100100 B
b11100100011001100 b
b11001100010010 $"
b10110100101010101 D"
#13211
b1110011000001110 "
b1011100110111 B
b10111001000000011 b
b10000101110 $"
b10111010011010000 D"
#13397
b1110111001101101 "
b110110000110 B
b10000100100001111 b
b10110111101010 $"
b10110011100110011 D"
#13582
b1110110101010110 "
b10001011010111 B
b1001010000011101 b
b100100011110110 $"
b10100000001100111 D"
#13768
b1110001011101010 "
b10010011111100 B
b1100111001010 b
b101010111000000 $"
b10000001101101111 D"
#13954
b1100111111110101 "
b1001011000110 B
b101111001010111 b
b101011011000110 $"
b1011011010011101 D"
#14140
b1011010110010000 "
b1001000100010 B
b1100110001101011 b
b100111110010011 $"
b110001000000101 D"
#14326
b1001010101111001 "
b100010101110101 B
b10010100111000011 b
b100001111111001 $"
b111001011101 D"
#14512
b111001000000100 "
b1000000101100010 B
b10111000111000010 b
b11100000001000 $"
b11101101011111 D"
#14698
b100110011000010 "
b1011111011001000 B
b11010000110000101 b
b10111100101101 $"
b111001110001001 D"
#14884
b10010111111101 "
b1111010111010100 B
b11011011111001100 b
b10101100100000 $"
b1001010100110011 D"
#15069
b110101011 "
b10001111110001011 B
b11011011001001110 b
b10110000101010 $"
b1001111001011100 D"
#15255
b10100100111101 "
b10011011010110101 B
b11010000101011101 b
b11000111100011 $"
b1001000000010000 D"
#15441
b101000100000100 "
b10011100000011101 B
b10111110111100000 b
b11101101000100 $"
b110110111101110 D"
#15627
b111100110101111 "
b10010001010111100 B
b10101000100100010 b
b100011010010101 $"
b11110100110111 D"
#15813
b1010001011001100 "
b1111011101110101 B
b10010000100011111 b
b101000101100010 $"
b10010110011 D"
#15999
b1100101101100010 "
b1011100101001100 B
b1111001100010001 b
b101100101011110 $"
b11010001001111 D"
#16185
b1111000111110111 "
b110110101100011 B
b1100101010100100 b
b101110110100000 $"
b110100000010011 D"
#16370
b10001001111001111 "
b1100101011110 B
b1010101000011111 b
b101111001001110 $"
b1001001010111111 D"
