hdl_prj/vivado_ip_prj/.Xil/Vivado-2093-jason-OptiPlex-9020/hw_ila_data_1/zip_work/waveform.vcd
$date
        2019-Apr-09 10:22:28
$end
$version
        Vivado v2017.4 (64-bit)
$end
$timescale
        1ps
$end
$scope module dut $end
$var reg 32 " i_system_wrapper/system_i/ZynqBF_2t_ip_0/inst/u_ZynqBF_2t_ip_dut_inst/u_ZynqBF_2t_ip_src_ZynqBF_2tx_fpga/u_channel_estimator/u_correlators/ch4_corr_probe [31:0] $end
$var reg 32 B i_system_wrapper/system_i/ZynqBF_2t_ip_0/inst/u_ZynqBF_2t_ip_dut_inst/u_ZynqBF_2t_ip_src_ZynqBF_2tx_fpga/u_channel_estimator/u_correlators/ch2_corr_probe [31:0] $end
$var reg 32 b i_system_wrapper/system_i/ZynqBF_2t_ip_0/inst/u_ZynqBF_2t_ip_dut_inst/u_ZynqBF_2t_ip_src_ZynqBF_2tx_fpga/u_channel_estimator/u_correlators/ch1_corr_probe [31:0] $end
$var reg 32 $" i_system_wrapper/system_i/ZynqBF_2t_ip_0/inst/u_ZynqBF_2t_ip_dut_inst/u_ZynqBF_2t_ip_src_ZynqBF_2tx_fpga/u_channel_estimator/u_correlators/ch5_corr_probe [31:0] $end
$var reg 32 D" i_system_wrapper/system_i/ZynqBF_2t_ip_0/inst/u_ZynqBF_2t_ip_dut_inst/u_ZynqBF_2t_ip_src_ZynqBF_2tx_fpga/u_channel_estimator/u_correlators/ch3_corr_probe [31:0] $end
$var reg 32 d" \i_system_wrapper/system_i/ZynqBF_2t_ip_0/inst/u_ZynqBF_2t_ip_dut_inst/u_ZynqBF_2t_ip_src_ZynqBF_2tx_fpga/u_channel_estimator/ch_i_200[4]_312 [31:0] $end
$var reg 32 &# \i_system_wrapper/system_i/ZynqBF_2t_ip_0/inst/u_ZynqBF_2t_ip_dut_inst/u_ZynqBF_2t_ip_src_ZynqBF_2tx_fpga/u_channel_estimator/ch_i_200[0]_304 [31:0] $end
$var reg 32 F# \i_system_wrapper/system_i/ZynqBF_2t_ip_0/inst/u_ZynqBF_2t_ip_dut_inst/u_ZynqBF_2t_ip_src_ZynqBF_2tx_fpga/u_channel_estimator/ch_i_200[1]_306 [31:0] $end
$var reg 32 f# \i_system_wrapper/system_i/ZynqBF_2t_ip_0/inst/u_ZynqBF_2t_ip_dut_inst/u_ZynqBF_2t_ip_src_ZynqBF_2tx_fpga/u_channel_estimator/ch_i_200[2]_308 [31:0] $end
$var reg 32 ($ \i_system_wrapper/system_i/ZynqBF_2t_ip_0/inst/u_ZynqBF_2t_ip_dut_inst/u_ZynqBF_2t_ip_src_ZynqBF_2tx_fpga/u_channel_estimator/ch_i_200[3]_310 [31:0] $end
$var reg 1 H$ _TRIGGER $end
$var reg 1 I$ _WINDOW $end
$var reg 1 J$ _GAP $end
$upscope $end
$enddefinitions $end
#0
$dumpvars
b111100000011001010 "
b1100011011010111110 B
b100001101001110000 b
b1010101011000011100 $"
b1001101001001000000 D"
b11111111111111010111111010011001 d"
b110001110010100000111 &#
b11111111110010111100010100100001 F#
b10001100101101101 f#
b11111111111110100010110010111001 ($
0H$
1I$
0J$
$end
#7
b110101011001101100 "
b1111011000110111100 B
b1101110100110110 b
b1000101111110011100 $"
b111100010000001000 D"
#193
b100110111000001010 "
b10000111011000110010 B
b10001011111111010 b
b110100010001110110 $"
b101101010011100010 D"
#379
b11111101100100010 "
b10001000110101000110 B
b101001001010011010 b
b100001010110011100 $"
b100111000000001010 D"
#565
b11101000000100110 "
b1111100111011111110 B
b111100000101000110 b
b11000100001010000 $"
b11011110111001000 D"
#751
b10110011000110000 "
b1101000001110010000 B
b1000111110101100010 b
b110000000100110110 $"
b1100110100000100 D"
#936
b100001001000100000 "
b1001100011011010100 B
b1001110001010100110 b
b1000011101010001000 $"
b11011011111110010 D"
#1122
b101101110101111100 "
b101111011110110100 B
b1001110110110111100 b
b1010111000100000100 $"
b100010110011001110 D"
#1308
b110001110101111110 "
b101001001101111100 B
b1000110000011011110 b
b1101000011110010100 $"
b110100000000110010 D"
#1494
b110001000100010010 "
b101110010110100100 B
b110111110001110000 b
b1101110011001100100 $"
b1000001010100011100 D"
#1680
b110101110110100110 "
b110010110101101100 B
b100111100001011010 b
b1101000101010000000 $"
b1001000110110001010 D"
#1866
b1000000000011110000 "
b111101110101001100 B
b110000100101011110 b
b1011110111110100110 $"
b1001010011101001100 D"
#2052
b1000100001101011100 "
b1010000010101101000 B
b1101101000110110110 b
b1010000010111101110 $"
b1001001010100000000 D"
#2238
b1000010110110000100 "
b1101010010101011110 B
b10100111111000000000 b
b111101000110101000 $"
b1000110011010011000 D"
#2423
b111100011110010010 "
b10000111000101010110 B
b11010011100011100100 b
b100101111000111000 $"
b1000010000111010010 D"
#2609
b110010111110101000 "
b10011011011110100000 B
b11101110010000111110 b
b1100110001101000 $"
b1011011110000111110 D"
#2795
b110000101110101010 "
b10011100001110101100 B
b11101111111011101110 b
b1100101000001010 $"
b1111001101111000000 D"
#2981
b110110011101001010 "
b10010110101010000110 B
b11010000011011100100 b
b101010010111100000 $"
b10000111001101000100 D"
#3167
b111000011111000010 "
b10000100101111000110 B
b10001110000100110100 b
b1000101110011101010 $"
b10001101100100101000 D"
#3353
b110010010100010100 "
b1011111101011000000 B
b1010110110001011010 b
b1011100000010101100 $"
b10001101110110000100 D"
#3539
b100111000011100100 "
b10111001110101001100 B
b1101000111110011010 b
b1101100100100100010 $"
b10000010101010101000 D"
#3725
b11010010001100010 "
b101101100101000001110 B
b11111111000000101000 b
b1110110001111000110 $"
b1110000101011011110 D"
#3910
b1011111000111010 "
b1000110101011100111000 B
b110110001011110111110 b
b1110111001100100110 $"
b1101011001010000110 D"
#4096
b10101001111001110 "
b1011111110010100011010 B
b1001101011001101011010 b
b1101010110010001100 $"
b1110000001000111010 D"
1H$
#4282
b100110001100100000 "
b1110110010111110111100 B
b1100011100101010100010 b
b1010101111000100000 $"
b1101111110111011110 D"
#4468
b111101001011101000 "
b10001001110000111010110 B
b1110101100110001010100 b
b111101000011001010 $"
b1101011100001010010 D"
#4654
b1010010011111111000 "
b10011000000110010000100 B
b10000010001110100011010 b
b1000110011001000010 $"
b1100011101110100110 D"
#4840
b1100100110011011010 "
b10011111010001011011100 B
b10001000100000101101010 b
b1001101010011110010 $"
b1011001011001001110 D"
#5026
b1110011110111011100 "
b10011110100011111101000 B
b10001000001111011000010 b
b1011000001100010110 $"
b1001010000000010010 D"
#5211
b1111111100110001000 "
b10010110100100001011100 B
b10000001100001100110100 b
b1100110000100111110 $"
b110101110110110100 D"
#5397
b10001001001000000010 "
b10001000011110100000100 B
b1110101011010001010110 b
b1110000001111101100 $"
b110110010111111000 D"
#5583
b10001101111110001100 "
b1110100111100000110110 B
b1100100000001000010110 b
b1110000111110000010 $"
b111010000000101110 D"
#5769
b10000111010111101000 "
b1011101011001111010000 B
b1001110011110111001010 b
b1101001111111010000 $"
b111000110110101010 D"
#5955
b1110100111100011110 "
b1000100100101111000010 B
b110111000100010111010 b
b1100110001000110000 $"
b1000000111110110100 D"
#6141
b1011010110111011100 "
b101101000000100101100 B
b11111111011110001100 b
b1011111000001011000 $"
b1011110100000001010 D"
#6327
b1000010010000001000 "
b10111011011010100010 B
b1010111010110011010 b
b1010010101110111110 $"
b1110010101110101010 D"
#6513
b101011111111000010 "
b1101111001011001110 B
b1010111110011100010 b
b1001001100000010010 $"
b10000011101000110110 D"
#6698
b11010010110000000 "
b10010000000101100010 B
b10010000000110101110 b
b111111111111111000 $"
b10001110001110111110 D"
#6884
b1101111010100110 "
b10011100000100000000 B
b11001001000001100000 b
b1000011110000101100 $"
b10010001101011100010 D"
#7070
b1001010110110000 "
b10100000001011011110 B
b11011010111111101100 b
b1000100100011110110 $"
b10001110111010001110 D"
#7256
b10100101011010010 "
b10011111001101111000 B
b11001001101101101110 b
b111111111000100010 $"
b10001101011101111000 D"
#7442
b11100100101101010 "
b1111111101010101010 B
b10011111101010011110 b
b110111001101011100 $"
b10010010010110011100 D"
