hdl_prj/vivado_ip_prj/.Xil/Vivado-3670-jason-OptiPlex-9020/hw_ila_data_1/zip_work/waveform.vcd
$date
        2019-Apr-16 15:20:08
$end
$version
        Vivado v2017.4 (64-bit)
$end
$timescale
        1ps
$end
$scope module dut $end
$var reg 32 " i_system_wrapper/system_i/ZynqBF_2t_ip_0/inst/u_ZynqBF_2t_ip_dut_inst/u_ZynqBF_2t_ip_src_ZynqBF_2tx_fpga/u_channel_estimator/u_correlators/ch1_corr_probe [31:0] $end
$var reg 32 B i_system_wrapper/system_i/ZynqBF_2t_ip_0/inst/u_ZynqBF_2t_ip_dut_inst/u_ZynqBF_2t_ip_src_ZynqBF_2tx_fpga/u_channel_estimator/u_correlators/ch2_corr_probe [31:0] $end
$var reg 32 b i_system_wrapper/system_i/ZynqBF_2t_ip_0/inst/u_ZynqBF_2t_ip_dut_inst/u_ZynqBF_2t_ip_src_ZynqBF_2tx_fpga/u_channel_estimator/u_correlators/ch3_corr_probe [31:0] $end
$var reg 32 $" i_system_wrapper/system_i/ZynqBF_2t_ip_0/inst/u_ZynqBF_2t_ip_dut_inst/u_ZynqBF_2t_ip_src_ZynqBF_2tx_fpga/u_channel_estimator/u_correlators/ch5_corr_probe [31:0] $end
$var reg 32 D" i_system_wrapper/system_i/ZynqBF_2t_ip_0/inst/u_ZynqBF_2t_ip_dut_inst/u_ZynqBF_2t_ip_src_ZynqBF_2tx_fpga/u_channel_estimator/u_correlators/ch4_corr_probe [31:0] $end
$var reg 1 d" _TRIGGER $end
$var reg 1 e" _WINDOW $end
$var reg 1 f" _GAP $end
$upscope $end
$enddefinitions $end
#0
$dumpvars
b10101101010101000 "
b1110011111101000010 B
b110001110010011100 b
b1011001100011000100 $"
b101011001001110110 D"
0d"
1e"
0f"
$end
#16
b10100111100101010 "
b1110111110010010110 B
b101111110010000110 b
b1100000010000011010 $"
b101111101100010110 D"
#202
b10011000001100110 "
b1111100000110001010 B
b101101000011010000 b
b1100111001110101000 $"
b110001001010000110 D"
#388
b10101010000101010 "
b1111001001010000000 B
b100111101011111100 b
b1101000111000110010 $"
b101101000000100100 D"
#574
b11111101001110000 "
b1110000101111011110 B
b11111100000010010 b
b1100101100110000000 $"
b101111111111000000 D"
#760
b100010101000100000 "
b1100111010111110100 B
b11000010111110110 b
b1010110111100100000 $"
b111010100000011110 D"
#946
b100101010010000010 "
b1011101000011101010 B
b10101100001000100 b
b111001101111011000 $"
b1000001011100111010 D"
#1132
b100010001100011000 "
b1010010100010010110 B
b10101110001101110 b
b101001110011001010 $"
b1000011001100100100 D"
#1318
b11010011011001000 "
b1001100100000011100 B
b10111101111101100 b
b110110111100001000 $"
b1000010101101010010 D"
#1504
b11100010000010100 "
b1001011100010010100 B
b11000010011001110 b
b1000010011010011110 $"
b111111111000011100 D"
#1690
b11001111111101100 "
b1001111000111111100 B
b11000110010100000 b
b1001100101110101000 $"
b111001110001111100 D"
#1876
b10011101110000110 "
b1010100100101100110 B
b11011100000100000 b
b1010011000101001010 $"
b101110011111110000 D"
#2062
b11101100110001100 "
b1011001001100001110 B
b100100111111110110 b
b1010101100001101110 $"
b11100111111100010 D"
#2248
b101011101110101110 "
b1100010000011010010 B
b111001000100000000 b
b1011011001100111000 $"
b1011111001000100 D"
#2434
b110100010100011100 "
b1101011001101100100 B
b1001110000001001100 b
b1011100110111011000 $"
b10101001101100100 D"
#2620
b110011101110010000 "
b1110000101100011100 B
b1011100001101100100 b
b1010101000100010000 $"
b100100011100001100 D"
#2806
b110011001101111000 "
b1110011010111000000 B
b1100101101001100110 b
b1000110100001010100 $"
b110100010100111000 D"
#2992
b110100010110110100 "
b1101111101101111100 B
b1101100110100010010 b
b101101101110011100 $"
b111101100000110000 D"
#3178
b110101100100001010 "
b1100100000100100000 B
b1110001111110010100 b
b1100111010111100 $"
b1000011001111001000 D"
#3364
b110110010010001010 "
b1010010100011110010 B
b1111001100100010110 b
b11010000000000100 $"
b1001001101011111010 D"
#3550
b110100001100111010 "
b1000111000000110010 B
b1111100010100101110 b
b111010101110010000 $"
b1001101000100000100 D"
#3736
b101111100110110100 "
b1001001000010111010 B
b1110000001000010110 b
b1011100010110000010 $"
b1001110011101110000 D"
#3922
b100110100011111010 "
b1001011110000111100 B
b1011100001000011100 b
b1110101111011100010 $"
b1001110010110111100 D"
#4108
b11101000101010110 "
b1001100010001001100 B
b1000101111011001010 b
b10000000111101000010 $"
b1001100100111001110 D"
#4294
b10100001110011110 "
b1001011001010011110 B
b101011001000101000 b
b1111111100000010000 $"
b1001000111011011110 D"
#4480
b1011001110001110 "
b1001100100111010100 B
b10010101101101110 b
b1110110111011101010 $"
b1000110011111000100 D"
#4666
b1000010000110 "
b1010000100000111110 B
b1000101101011000 b
b1101000010010000000 $"
b1000110001100110010 D"
#4852
b111101100101010 "
b1010111101101010100 B
b11000100010101110 b
b1010001001011010000 $"
b1001001010100110000 D"
#5038
b1101011001000010 "
b1100010000100100000 B
b100101111011110000 b
b110101111100111010 $"
b1001100011100011100 D"
#5224
b10010110010001000 "
b1101010100001000110 B
b110011000010101000 b
b11100000011000010 $"
b1001111101000100110 D"
#5410
b10100111111011100 "
b1101100000101101100 B
b1000010101100001110 b
b111101110001110100 $"
b1010010000000110000 D"
#5596
b11100111001001000 "
b1101011111001000100 B
b1001111001011011000 b
b1011100011111000010 $"
b1001110000010001110 D"
#5782
b100100011100110110 "
b1100111100000000000 B
b1011101000100010100 b
b1110011001000011010 $"
b1000101110101011010 D"
#5968
b101001010010011000 "
b1011011110110010100 B
b1101011100101001000 b
b1111111101111101010 $"
b111011100110001000 D"
#6154
b101100111010101010 "
b1001011001100111100 B
b1110101111110111100 b
b10000010011110111110 $"
b101100111010011110 D"
#6340
b101110101010000100 "
b110100111010111100 B
b1111011101110011100 b
b1111010001110101100 $"
b11101001010011010 D"
#6526
b101101011111001110 "
b11010101000101010 B
b10000001000000000010 b
b1101100011101001100 $"
b1111100111000100 D"
#6712
b100111111110110100 "
b1111011110101000 B
b10000100100000110010 b
b1011001111110001010 $"
b1010110101010010 D"
#6898
b100000101000110000 "
b11011011011100010 B
b10000010010001111010 b
b1001000110001110000 $"
b11101100100011110 D"
#7084
b11001100010010000 "
b100010111101011110 B
b1111111010110000110 b
b111111100101101110 $"
b101110010100011010 D"
#7270
b10011001110000100 "
b110000010000011000 B
b1111100001000010010 b
b111010001001010010 $"
b111010111100000110 D"
#7456
b1101011010011110 "
b111101011100110000 B
b1111000010111001100 b
b110101001100011100 $"
b1000001000101001010 D"
#7642
b1000111100100110 "
b1001000101011000100 B
b1110001111010000110 b
b110011111001110100 $"
b1000001001110101000 D"
#7828
b1010000001100100 "
b1010010101011100110 B
b1101010111010100000 b
b110101011100001100 $"
b111011001001110010 D"
#8014
b100111000111110 "
b1010111101010001100 B
b1100100100111001100 b
b110010011011110000 $"
b101011111011000110 D"
#8200
b1101110111110110 "
b1010111011000100110 B
b1100001010110100010 b
b101100100110110010 $"
b11000101100010000 D"
#8386
b11010011000110010 "
b1010101111101101010 B
b1011111001010011000 b
b100111001010110000 $"
b11101110100100100 D"
#8572
b101100100100110000 "
b1010010010110100110 B
b1011001001011001110 b
b101100100101010010 $"
b100101110010001100 D"
#8758
b111110110101011010 "
b1001011000111011100 B
b1001100101011100000 b
b110000001111111110 $"
b101010000111001000 D"
#8944
b1001111011001000110 "
b1000010001001001000 B
b111001110001100100 b
b101101011010110100 $"
b101001000010010010 D"
#9130
b1011111000001111000 "
b110111110000111110 B
b100011111110001110 b
b100110011000010110 $"
b100100011101110010 D"
#9316
b1101101101010100110 "
b101001011111000110 B
b11011111001011100 b
b11011001011101010 $"
b11000111010110110 D"
#9502
b1111100010011001110 "
b10111110001001000 B
b101101100001001000 b
b100000001111010110 $"
b101111111000000 D"
#9688
b10000111000111100100 "
b11101100011100 B
b111011100110010110 b
b101101000001001000 $"
b10011011101000010 D"
#9874
b10001001110011100100 "
b1000110101101000 B
b1000110110001101110 b
b111011101011001010 $"
b101011111110101010 D"
#10060
b10000101000010001100 "
b10101110001010010 B
b1010101101100000110 b
b1001001110111110100 $"
b111101111000111100 D"
#10246
b1111001010000100100 "
b100011110101011010 B
b1101000101111100000 b
b1010001110001111000 $"
b1001001010110110000 D"
#10432
b1100110111001000100 "
b110000110011001010 B
b1110111010110111000 b
b1010100111001001110 $"
b1001100110011101110 D"
#10618
b1010000100110110110 "
b110110101100010100 B
b1111110001011111110 b
b1010100110001000100 $"
b1010000001111010100 D"
#10804
b110111001011111110 "
b111011000010001000 B
b10000010001110110010 b
b1010001111010110000 $"
b1010000101010100100 D"
#10990
b100001000011100010 "
b111101101011000000 B
b1111101000000000010 b
b1001011001101110110 $"
b1010000100101001100 D"
#11176
b10101111001010110 "
b110110100111100000 B
b1101101001000000000 b
b111111111111000000 $"
b1000111010101001010 D"
#11362
b10110001001000000 "
b100100001110010110 B
b1010111001111101000 b
b110010101010111000 $"
b101101110010011010 D"
#11548
b100001011010101100 "
b10001101001000100 B
b111110101110101010 b
b100110011100001010 $"
b1101010000101010 D"
#11734
b110110010010101010 "
b1100100010000100 B
b100010111101110110 b
b101000011101001010 $"
b10101010100100110 D"
#11920
b1001110110111000110 "
b10100111111110110 B
b1010011000111000 b
b101011100101001000 $"
b101101011111100100 D"
#12106
b1100101101010001010 "
b100001111000001010 B
b10101100100100010 b
b101110010100100000 $"
b1000100000010111110 D"
#12292
b1110111001001110010 "
b101010011101010100 B
b101100001000101000 b
b110100000110111010 $"
b1010010001101000000 D"
#12478
b1111101010110010000 "
b101011000000011100 B
b111000100000111010 b
b111001111110000100 $"
b1011001100000101010 D"
#12664
b1110101100111000100 "
b110100111110000100 B
b111000000010011110 b
b1000111111011011110 $"
b1010100110011001100 D"
#12850
b1011010100110010110 "
b1000100010101010010 B
b101110101110100000 b
b1010011000010101100 $"
b1000110001011010110 D"
#13036
b101001010100000100 "
b1000111101111000100 B
b100000011010101010 b
b1011001110111001000 $"
b110001010101110010 D"
#13222
b11010001001110010 "
b1001010011110011010 B
b110010111000010 b
b1010111111111010010 $"
b100001010110101000 D"
#13408
b1100000101100000100 "
b1010000010000100000 B
b100010110110101000 b
b1001100101000111100 $"
b101110101010001110 D"
#13594
b10101010100111101000 "
b1010011101011001100 B
b1001100001011110110 b
b111001100100011010 $"
b111010100100111000 D"
#13780
b11101010010001010010 "
b1010110010000110010 B
b1110100010001001110 b
b100001110111110110 $"
b1000101010011111010 D"
#13966
b100010000001111100010 "
b1011000101100101000 B
b10001110101001110110 b
b101000010100001000 $"
b1011101010001000100 D"
#14152
b100001111100100101000 "
b1011011101001010000 B
b10010100100010101010 b
b110011010100010110 $"
b1101010010110111010 D"
#14338
b11101001001101101000 "
b1011011110111000100 B
b10001011011011000000 b
b111011100111000010 $"
b1110001110110001000 D"
#14524
b10010111111100011010 "
b1011100010100000010 B
b1110001011011110000 b
b111110000011101000 $"
b1110010111010000000 D"
#14710
b11011100010100000 "
b1011100010111000000 B
b1101000100011001000 b
b110100110010101000 $"
b1110110000010111110 D"
#14896
b10010010101100010110 "
b1011001000001000100 B
b1111100000110000110 b
b100101110000101110 $"
b10011011111110011100 D"
#15082
b101001111010100111100 "
b1110110001101001000 B
b10001111010101010110 b
b10101001100100110 $"
b11001010101111101000 D"
#15268
b1000011111100010111110 "
b10100101010111010010 B
b10100101010101111100 b
b1010101101110110 $"
b11111001111110010110 D"
#15454
b1011110000111010111110 "
b11001111100101111000 B
b11111110011001101110 b
b100101111011000010 $"
b100100010001011001010 D"
#15640
b1110110100000010100110 "
b11110011111111011110 B
b101010010110011100110 b
b111100100000011100 $"
b101001001111010000110 D"
#15826
b10001001111100100011100 "
b100011001110001100010 B
b110011001110000100010 b
b1010000011111010010 $"
b101101111100000101110 D"
#16012
b10010111011000111111110 "
b100111010001110011010 B
b111001001111100000110 b
b1100001101100111110 $"
b110001101000011011010 D"
#16198
b10011101101011010010000 "
b101001100100110110010 B
b111011111000000001100 b
b1110000000000011110 $"
b110011010100011101110 D"
#16384
b10011100001010001001100 "
b101010001101010101110 B
b111011100101111000100 b
b1111100100001001110 $"
b110011001010110001100 D"
1d"
#16570
b10010011001100010111100 "
b101001010101011000100 B
b111000110001000110110 b
b10000111001010111110 $"
b110001010110100001000 D"
#16756
b10000011010011000100110 "
b100110111111011011110 B
b110011000000101011010 b
b10001100010011011000 $"
b101100111100001010100 D"
#16941
b1101101101001001011000 "
b100011100011001000110 B
b101010110011000001010 b
b10001100111101101110 $"
b100110011011111101000 D"
#17128
b1010100101100010000010 "
b11111100100101110100 B
b100000101001010101110 b
b10001010000011001000 $"
b11111101010010011010 D"
#17314
b111010001101101100010 "
b11011001100110000010 B
b10101000110111010000 b
b10000101100000000010 $"
b11000101101110000100 D"
#17499
b100001011000111101110 "
b10110100011100001110 B
b1001001110100011110 b
b1111110001001111110 $"
b10001100111100111100 D"
#17685
b1011110000010100000 "
b10010010001010011110 B
b101000010001110100 b
b1110001111001110010 $"
b1011000011010110100 D"
#17871
b101101000100101000 "
b1110000111101100010 B
b1010001010111111110 b
b1100010001111110110 $"
b100111100101001000 D"
#18057
b10001110001111010100 "
b1010101101111001110 B
b10000001111010111100 b
b1010000000100110000 $"
b10010100110001110 D"
#18243
b11000001001110111010 "
b1000100011110110110 B
b10011010111000110100 b
b111101100101100010 $"
b100010011001011000 D"
#18429
b11001011110110100000 "
b110111110010110110 B
b10100000100111110100 b
b101011001010010100 $"
b111101101100011000 D"
#18615
b10111000010010010110 "
b110001101011110100 B
b10011000010111010010 b
b11010001011011100 $"
b1001101000110111100 D"
#18801
b10001011101100111110 "
b110010001100000000 B
b10000100001110000010 b
b10110010011011100 $"
b1010001010111101110 D"
#23637
b111111001100 "
b101001011110 B
b111100110110 b
b110101010000 $"
b101101001110 D"
#23823
b1011000111010 "
b1000010100110 B
b1000011111010 b
b111101011110 $"
b1001111101110 D"
#24009
b10001101110100 "
b1100111110100 B
b1010101011110 b
b1001111001110 $"
b1110101010000 D"
#24195
b11000100100110 "
b10001111001010 B
b1011000001110 b
b1010100111110 $"
b10010111001110 D"
#24381
b11111010001010 "
b10110111100010 B
b1001011111010 b
b1001101111110 $"
b10110101010000 D"
#24567
b100101011011010 "
b11011111011110 B
b110010010110 b
b111010111110 $"
b11010000000010 D"
#24753
b101010101100100 "
b100000101001000 B
b1111001110 b
b11110010100 $"
b11101001000110 D"
#24939
b101110101101110 "
b100100111000010 B
b10111111100 b
b101010000 $"
b100000001111010 D"
#25125
b110001010110010 "
b101000010101000 B
b111110001100 b
b101010111110 $"
b100011101001100 D"
#25311
b110010011111100 "
b101010110001010 B
b1011110011000 b
b1001110010110 $"
b100111100110000 D"
#25497
b110010001010100 "
b101100000001110 B
b1110100001010 b
b1101011001100 $"
b101100001100110 D"
#25683
b110000011111010 "
b101100000001000 B
b1111100101100 b
b1111101111000 $"
b110001011101100 D"
#25869
b101101101100000 "
b101010101111100 B
b1110110111100 b
b10000011111010 $"
b110111001101000 D"
#26055
b101010000100110 "
b101000010010010 B
b1100011101100 b
b1111100000000 $"
b111101000111000 D"
#26241
b100110000001110 "
b100100110100100 B
b1000101100000 b
b1100110000110 $"
b1000010110000010 D"
#26427
b100010000000110 "
b100000101000110 B
b11111101010 b
b1000010111010 $"
b1000111101110010 D"
#26613
b11110011010100 "
b11011111110100 B
b1000000100 b
b10100110100 $"
b1001011011001110 D"
#26799
b11011100000000 "
b10111000000010 B
b101101010110 b
b100000011100 $"
b1001101011111010 D"
#26985
b11001100011000 "
b10001111100010 B
b1001011100110 b
b1011001010010 $"
b1001101110000010 D"
#27171
b11000110000000 "
b1100111110010 B
b1011111000100 b
b10010010001000 $"
b1001100001011100 D"
#27357
b11001001110000 "
b1000001110100 B
b1100101001100 b
b11000111100010 $"
b1001000111101110 D"
#27543
b11010111101010 "
b11110001110 B
b1011100110010 b
b11110110101010 $"
b1000100100001100 D"
#27729
b11101111000110 "
b10110000 B
b1000101111110 b
b100011101010110 $"
b111111011100000 D"
#27915
b100001110001110 "
b100000110110 B
b100001101110 b
b100111001100000 $"
b111010011100110 D"
#28101
b100001110001010 "
b100111001011100 $"
b111010011100010 D"
#28287
b100001110000110 "
b100111001011000 $"
b111010011011010 D"
#28473
b100001110000010 "
b100111001010010 $"
b111010011010100 D"
#28659
b100001110000000 "
b100000110100 B
b100001101100 b
b100111001010000 $"
b111010011001110 D"
#28845
b100001101111100 "
b100111001001100 $"
b111010011001000 D"
#29031
b100001101111000 "
b100000110110 B
b100001101010 b
b100111001000110 $"
b111010011000000 D"
#29217
b100001101110100 "
b100001101000 b
b100111001000010 $"
b111010010111010 D"
#29403
b100001101110000 "
b100000110100 B
b100001101010 b
b100111000111110 $"
b111010010110100 D"
#29589
b100101000111000 "
b1000010000100 B
b1111100110 b
b100011100000000 $"
b111110110011000 D"
#29775
b101000000101100 "
b1100011101010 B
b1000010000 b
b100000010110100 $"
b1000010001011100 D"
#29961
b101010110011010 "
b10000101010100 B
b1010111110 b
b11101111110000 $"
b1000100000010010 D"
#30147
b101101011010110 "
b10100110101110 B
b10110101100 b
b11100100110010 $"
b1000100000111100 D"
#30333
b110000001000010 "
b11000111100110 B
b101001110010 b
b11100011011100 $"
b1000010011011000 D"
#30519
b110011000110110 "
b11100111111010 B
b1000010011000 b
b11101100101000 $"
b111111001011100 D"
#30705
b110110011111100 "
b100000111100110 B
b1011110010110 b
b100000000101010 $"
b111010110110010 D"
#30891
b111010010100110 "
b100100110001010 B
b1111010111100 b
b100011111101000 $"
b110110000110000 D"
#31077
b111110110010010 "
b101000011111110 B
b10010110111010 b
b101001000010000 $"
b110001100011010 D"
#31263
b1000011110010000 "
b101100001110110 B
b10101111011100 b
b101110111110110 $"
b101101101111110 D"
#31449
b1001001001110000 "
b110000000001010 B
b11000010011110 b
b110101011111010 $"
b101011001011110 D"
#31635
b1001110111100000 "
b110011111000110 B
b11001110001000 b
b111100001011100 $"
b101010001100110 D"
#31821
b1010100101101010 "
b110111110110000 B
b11010000110110 b
b1000010101011110 $"
b101010111011000 D"
#32007
b1011010010000000 "
b111011111000010 B
b11001001011100 b
b1001000101000100 $"
b101101001111110 D"
#32193
b1011111010000000 "
b111111111101110 B
b10110111010110 b
b1001101101101000 $"
b110000111001000 D"
#32379
b1100011011110100 "
b1000100000000010 B
b10011011000110 b
b1010001101100110 $"
b110101010101100 D"
#32565
b1100110101000010 "
b1000111111110010 B
b1110100011000 b
b1010100010100000 $"
b111010001011010 D"
#32751
b1101000011010100 "
b1001011111100000 B
b1000101001100 b
b1010101100001000 $"
b111110110000000 D"
